uart/uart.vcd
$date
	Wed Jan 10 21:55:20 2024
$end
$version
	Icarus Verilog
$end
$timescale
	1ps
$end
$scope module uart $end
$var wire 1 ! btn1 $end
$var wire 1 " clk $end
$var wire 1 # reset $end
$var wire 8 $ tx_data_in [7:0] $end
$var wire 1 % tx_data_in_en $end
$var wire 1 & tx_send $end
$var wire 1 ' uart_rx $end
$var wire 1 ( uart_tx $end
$var reg 8 ) data_out [7:0] $end
$var reg 6 * led [5:0] $end
$var reg 3 + tx_bit_number [2:0] $end
$var reg 25 , tx_counter [24:0] $end
$var reg 1 - tx_fifo_overflow $end
$var reg 4 . tx_fifo_pos [3:0] $end
$var reg 1 / tx_pin_register $end
$var reg 4 0 tx_state [3:0] $end
$var integer 32 1 i [31:0] $end
$var integer 32 2 p [31:0] $end
$upscope $end
$scope module uart $end
$var reg 8 3 \tx_fifo[0] [7:0] $end
$upscope $end
$scope module uart $end
$var reg 8 4 \tx_fifo[1] [7:0] $end
$upscope $end
$scope module uart $end
$var reg 8 5 \tx_fifo[2] [7:0] $end
$upscope $end
$scope module uart $end
$var reg 8 6 \tx_fifo[3] [7:0] $end
$upscope $end
$scope module uart $end
$var reg 8 7 \tx_fifo[4] [7:0] $end
$upscope $end
$scope module uart $end
$var reg 8 8 \tx_fifo[5] [7:0] $end
$upscope $end
$scope module uart $end
$var reg 8 9 \tx_fifo[6] [7:0] $end
$upscope $end
$scope module uart $end
$var reg 8 : \tx_fifo[7] [7:0] $end
$upscope $end
$scope module uart $end
$var reg 8 ; \tx_fifo[8] [7:0] $end
$upscope $end
$scope module uart $end
$var reg 8 < \tx_fifo[9] [7:0] $end
$upscope $end
$scope module uart $end
$var reg 8 = \tx_fifo[10] [7:0] $end
$upscope $end
$scope module uart $end
$var reg 8 > \tx_fifo[11] [7:0] $end
$upscope $end
$scope module uart $end
$var reg 8 ? \tx_fifo[12] [7:0] $end
$upscope $end
$scope module uart $end
$var reg 8 @ \tx_fifo[13] [7:0] $end
$upscope $end
$scope module uart $end
$var reg 8 A \tx_fifo[14] [7:0] $end
$upscope $end
$scope module uart $end
$var reg 8 B \tx_fifo[15] [7:0] $end
$upscope $end
$enddefinitions $end
#0
$dumpvars
b0 B
b0 A
b0 @
b0 ?
b0 >
b0 =
b0 <
b0 ;
b0 :
b0 9
b0 8
b0 7
b0 6
b0 5
b0 4
b0 3
b10000 2
b10000 1
b0 0
x/
b0 .
0-
bx ,
bx +
bx *
bx )
x(
z'
z&
z%
bz $
1#
1"
z!
$end
#5000000
0"
#10000000
1(
1/
b0 B
b0 A
b0 @
b0 ?
b0 >
b0 =
b0 <
b0 ;
b0 :
b0 9
b0 8
b0 7
b0 6
b0 5
b0 4
b0 3
b10000 1
1"
#15000000
0"
#20000000
b0 B
b0 A
b0 @
b0 ?
b0 >
b0 =
b0 <
b0 ;
b0 :
b0 9
b0 8
b0 7
b0 6
b0 5
b0 4
b0 3
b10000 1
1"
#25000000
0"
#30000000
b0 B
b0 A
b0 @
b0 ?
b0 >
b0 =
b0 <
b0 ;
b0 :
b0 9
b0 8
b0 7
b0 6
b0 5
b0 4
b0 3
b10000 1
1"
#35000000
0"
#40000000
0#
b1000110 $
1%
b0 B
b0 A
b0 @
b0 ?
b0 >
b0 =
b0 <
b0 ;
b0 :
b0 9
b0 8
b0 7
b0 6
b0 5
b0 4
b0 3
b10000 1
1"
#45000000
0"
#50000000
b1110101 $
b1000110 3
b1 .
1"
#55000000
0"
#60000000
b1100011 $
b1110101 4
b10 .
1"
#65000000
0"
#70000000
b1101011 $
b1100011 5
b11 .
1"
#75000000
0"
#80000000
b100001 $
b1101011 6
b100 .
1"
#85000000
0"
#90000000
b100000 $
b100001 7
b101 .
1"
#95000000
0"
#100000000
0%
b100000 8
b110 .
1"
#105000000
0"
#110000000
1&
1"
#115000000
0"
#120000000
0&
b0 ,
b1 0
1"
#125000000
0"
#130000000
b1 ,
0(
0/
1"
#135000000
0"
#140000000
b10 ,
1"
#145000000
0"
#150000000
b11 ,
1"
#155000000
0"
#160000000
b100 ,
1"
#165000000
0"
#170000000
b101 ,
1"
#175000000
0"
#180000000
b110 ,
1"
#185000000
0"
#190000000
b111 ,
1"
#195000000
0"
#200000000
b1000 ,
1"
#205000000
0"
#210000000
b1001 ,
1"
#215000000
0"
#220000000
b1010 ,
1"
#225000000
0"
#230000000
b1011 ,
1"
#235000000
0"
#240000000
b1100 ,
1"
#245000000
0"
#250000000
b1101 ,
1"
#255000000
0"
#260000000
b1110 ,
1"
#265000000
0"
#270000000
b1111 ,
1"
#275000000
0"
#280000000
b10000 ,
1"
#285000000
0"
#290000000
b10001 ,
1"
#295000000
0"
#300000000
b10010 ,
1"
#305000000
0"
#310000000
b10011 ,
1"
#315000000
0"
#320000000
b10100 ,
1"
#325000000
0"
#330000000
b10101 ,
1"
#335000000
0"
#340000000
b10110 ,
1"
#345000000
0"
#350000000
b10111 ,
1"
#355000000
0"
#360000000
b11000 ,
1"
#365000000
0"
#370000000
b11001 ,
1"
#375000000
0"
#380000000
b11010 ,
1"
#385000000
0"
#390000000
b11011 ,
1"
#395000000
0"
#400000000
b11100 ,
1"
#405000000
0"
#410000000
b11101 ,
1"
#415000000
0"
#420000000
b11110 ,
1"
#425000000
0"
#430000000
b11111 ,
1"
#435000000
0"
#440000000
b100000 ,
1"
#445000000
0"
#450000000
b100001 ,
1"
#455000000
0"
#460000000
b100010 ,
1"
#465000000
0"
#470000000
b100011 ,
1"
#475000000
0"
#480000000
b100100 ,
1"
#485000000
0"
#490000000
b100101 ,
1"
#495000000
0"
#500000000
b100110 ,
1"
#505000000
0"
#510000000
b100111 ,
1"
#515000000
0"
#520000000
b101000 ,
1"
#525000000
0"
#530000000
b101001 ,
1"
#535000000
0"
#540000000
b101010 ,
1"
#545000000
0"
#550000000
b101011 ,
1"
#555000000
0"
#560000000
b101100 ,
1"
#565000000
0"
#570000000
b101101 ,
1"
#575000000
0"
#580000000
b101110 ,
1"
#585000000
0"
#590000000
b101111 ,
1"
#595000000
0"
#600000000
b110000 ,
1"
#605000000
0"
#610000000
b110001 ,
1"
#615000000
0"
#620000000
b110010 ,
1"
#625000000
0"
#630000000
b110011 ,
1"
#635000000
0"
#640000000
b110100 ,
1"
#645000000
0"
#650000000
b110101 ,
1"
#655000000
0"
#660000000
b110110 ,
1"
#665000000
0"
#670000000
b110111 ,
1"
#675000000
0"
#680000000
b111000 ,
1"
#685000000
0"
#690000000
b111001 ,
1"
#695000000
0"
#700000000
b111010 ,
1"
#705000000
0"
#710000000
b111011 ,
1"
#715000000
0"
#720000000
b111100 ,
1"
#725000000
0"
#730000000
b111101 ,
1"
#735000000
0"
#740000000
b111110 ,
1"
#745000000
0"
#750000000
b111111 ,
1"
#755000000
0"
#760000000
b1000000 ,
1"
#765000000
0"
#770000000
b1000001 ,
1"
#775000000
0"
#780000000
b1000010 ,
1"
#785000000
0"
#790000000
b1000011 ,
1"
#795000000
0"
#800000000
b1000100 ,
1"
#805000000
0"
#810000000
b1000101 ,
1"
#815000000
0"
#820000000
b1000110 ,
1"
#825000000
0"
#830000000
b1000111 ,
1"
#835000000
0"
#840000000
b1001000 ,
1"
#845000000
0"
#850000000
b1001001 ,
1"
#855000000
0"
#860000000
b1001010 ,
1"
#865000000
0"
#870000000
b1001011 ,
1"
#875000000
0"
#880000000
b1001100 ,
1"
#885000000
0"
#890000000
b1001101 ,
1"
#895000000
0"
#900000000
b1001110 ,
1"
#905000000
0"
#910000000
b1001111 ,
1"
#915000000
0"
#920000000
b1010000 ,
1"
#925000000
0"
#930000000
b1010001 ,
1"
#935000000
0"
#940000000
b1010010 ,
1"
#945000000
0"
#950000000
b1010011 ,
1"
#955000000
0"
#960000000
b1010100 ,
1"
#965000000
0"
#970000000
b1010101 ,
1"
#975000000
0"
#980000000
b1010110 ,
1"
#985000000
0"
#990000000
b1010111 ,
1"
#995000000
0"
#1000000000
b1011000 ,
1"
#1005000000
0"
#1010000000
b1011001 ,
1"
#1015000000
0"
#1020000000
b1011010 ,
1"
#1025000000
0"
#1030000000
b1011011 ,
1"
#1035000000
0"
#1040000000
b1011100 ,
1"
#1045000000
0"
#1050000000
b1011101 ,
1"
#1055000000
0"
#1060000000
b1011110 ,
1"
#1065000000
0"
#1070000000
b1011111 ,
1"
#1075000000
0"
#1080000000
b1100000 ,
1"
#1085000000
0"
#1090000000
b1100001 ,
1"
#1095000000
0"
#1100000000
b1100010 ,
1"
#1105000000
0"
#1110000000
b1100011 ,
1"
#1115000000
0"
#1120000000
b1100100 ,
1"
#1125000000
0"
#1130000000
b1100101 ,
1"
#1135000000
0"
#1140000000
b1100110 ,
1"
#1145000000
0"
#1150000000
b1100111 ,
1"
#1155000000
0"
#1160000000
b1101000 ,
1"
#1165000000
0"
#1170000000
b1101001 ,
1"
#1175000000
0"
#1180000000
b1101010 ,
1"
#1185000000
0"
#1190000000
b1101011 ,
1"
#1195000000
0"
#1200000000
b1101100 ,
1"
#1205000000
0"
#1210000000
b1101101 ,
1"
#1215000000
0"
#1220000000
b1101110 ,
1"
#1225000000
0"
#1230000000
b1101111 ,
1"
#1235000000
0"
#1240000000
b1110000 ,
1"
#1245000000
0"
#1250000000
b1110001 ,
1"
#1255000000
0"
#1260000000
b1110010 ,
1"
#1265000000
0"
#1270000000
b1110011 ,
1"
#1275000000
0"
#1280000000
b1110100 ,
1"
#1285000000
0"
#1290000000
b1110101 ,
1"
#1295000000
0"
#1300000000
b1110110 ,
1"
#1305000000
0"
#1310000000
b1110111 ,
1"
#1315000000
0"
#1320000000
b1111000 ,
1"
#1325000000
0"
#1330000000
b1111001 ,
1"
#1335000000
0"
#1340000000
b1111010 ,
1"
#1345000000
0"
#1350000000
b1111011 ,
1"
#1355000000
0"
#1360000000
b1111100 ,
1"
#1365000000
0"
#1370000000
b1111101 ,
1"
#1375000000
0"
#1380000000
b1111110 ,
1"
#1385000000
0"
#1390000000
b1111111 ,
1"
#1395000000
0"
#1400000000
b10000000 ,
1"
#1405000000
0"
#1410000000
b10000001 ,
1"
#1415000000
0"
#1420000000
b10000010 ,
1"
#1425000000
0"
#1430000000
b10000011 ,
1"
#1435000000
0"
#1440000000
b10000100 ,
1"
#1445000000
0"
#1450000000
b10000101 ,
1"
#1455000000
0"
#1460000000
b10000110 ,
1"
#1465000000
0"
#1470000000
b10000111 ,
1"
#1475000000
0"
#1480000000
b10001000 ,
1"
#1485000000
0"
#1490000000
b10001001 ,
1"
#1495000000
0"
#1500000000
b10001010 ,
1"
#1505000000
0"
#1510000000
b10001011 ,
1"
#1515000000
0"
#1520000000
b10001100 ,
1"
#1525000000
0"
#1530000000
b10001101 ,
1"
#1535000000
0"
#1540000000
b10001110 ,
1"
#1545000000
0"
#1550000000
b10001111 ,
1"
#1555000000
0"
#1560000000
b10010000 ,
1"
#1565000000
0"
#1570000000
b10010001 ,
1"
#1575000000
0"
#1580000000
b10010010 ,
1"
#1585000000
0"
#1590000000
b10010011 ,
1"
#1595000000
0"
#1600000000
b10010100 ,
1"
#1605000000
0"
#1610000000
b10010101 ,
1"
#1615000000
0"
#1620000000
b10010110 ,
1"
#1625000000
0"
#1630000000
b10010111 ,
1"
#1635000000
0"
#1640000000
b10011000 ,
1"
#1645000000
0"
#1650000000
b10011001 ,
1"
#1655000000
0"
#1660000000
b10011010 ,
1"
#1665000000
0"
#1670000000
b10011011 ,
1"
#1675000000
0"
#1680000000
b10011100 ,
1"
#1685000000
0"
#1690000000
b10011101 ,
1"
#1695000000
0"
#1700000000
b10011110 ,
1"
#1705000000
0"
#1710000000
b10011111 ,
1"
#1715000000
0"
#1720000000
b10100000 ,
1"
#1725000000
0"
#1730000000
b10100001 ,
1"
#1735000000
0"
#1740000000
b10100010 ,
1"
#1745000000
0"
#1750000000
b10100011 ,
1"
#1755000000
0"
#1760000000
b10100100 ,
1"
#1765000000
0"
#1770000000
b10100101 ,
1"
#1775000000
0"
#1780000000
b10100110 ,
1"
#1785000000
0"
#1790000000
b10100111 ,
1"
#1795000000
0"
#1800000000
b10101000 ,
1"
#1805000000
0"
#1810000000
b10101001 ,
1"
#1815000000
0"
#1820000000
b10101010 ,
1"
#1825000000
0"
#1830000000
b10101011 ,
1"
#1835000000
0"
#1840000000
b10101100 ,
1"
#1845000000
0"
#1850000000
b10101101 ,
1"
#1855000000
0"
#1860000000
b10101110 ,
1"
#1865000000
0"
#1870000000
b10101111 ,
1"
#1875000000
0"
#1880000000
b10110000 ,
1"
#1885000000
0"
#1890000000
b10110001 ,
1"
#1895000000
0"
#1900000000
b10110010 ,
1"
#1905000000
0"
#1910000000
b10110011 ,
1"
#1915000000
0"
#1920000000
b10110100 ,
1"
#1925000000
0"
#1930000000
b10110101 ,
1"
#1935000000
0"
#1940000000
b10110110 ,
1"
#1945000000
0"
#1950000000
b10110111 ,
1"
#1955000000
0"
#1960000000
b10111000 ,
1"
#1965000000
0"
#1970000000
b10111001 ,
1"
#1975000000
0"
#1980000000
b10111010 ,
1"
#1985000000
0"
#1990000000
b10111011 ,
1"
#1995000000
0"
#2000000000
b10111100 ,
1"
#2005000000
0"
#2010000000
b10111101 ,
1"
#2015000000
0"
#2020000000
b10111110 ,
1"
#2025000000
0"
#2030000000
b10111111 ,
1"
#2035000000
0"
#2040000000
b11000000 ,
1"
#2045000000
0"
#2050000000
b11000001 ,
1"
#2055000000
0"
#2060000000
b11000010 ,
1"
#2065000000
0"
#2070000000
b11000011 ,
1"
#2075000000
0"
#2080000000
b11000100 ,
1"
#2085000000
0"
#2090000000
b11000101 ,
1"
#2095000000
0"
#2100000000
b11000110 ,
1"
#2105000000
0"
#2110000000
b11000111 ,
1"
#2115000000
0"
#2120000000
b11001000 ,
1"
#2125000000
0"
#2130000000
b11001001 ,
1"
#2135000000
0"
#2140000000
b11001010 ,
1"
#2145000000
0"
#2150000000
b11001011 ,
1"
#2155000000
0"
#2160000000
b11001100 ,
1"
#2165000000
0"
#2170000000
b11001101 ,
1"
#2175000000
0"
#2180000000
b11001110 ,
1"
#2185000000
0"
#2190000000
b11001111 ,
1"
#2195000000
0"
#2200000000
b11010000 ,
1"
#2205000000
0"
#2210000000
b11010001 ,
1"
#2215000000
0"
#2220000000
b11010010 ,
1"
#2225000000
0"
#2230000000
b11010011 ,
1"
#2235000000
0"
#2240000000
b11010100 ,
1"
#2245000000
0"
#2250000000
b11010101 ,
1"
#2255000000
0"
#2260000000
b11010110 ,
1"
#2265000000
0"
#2270000000
b11010111 ,
1"
#2275000000
0"
#2280000000
b11011000 ,
1"
#2285000000
0"
#2290000000
b11011001 ,
1"
#2295000000
0"
#2300000000
b11011010 ,
1"
#2305000000
0"
#2310000000
b11011011 ,
1"
#2315000000
0"
#2320000000
b11011100 ,
1"
#2325000000
0"
#2330000000
b11011101 ,
1"
#2335000000
0"
#2340000000
b11011110 ,
1"
#2345000000
0"
#2350000000
b11011111 ,
1"
#2355000000
0"
#2360000000
b11100000 ,
1"
#2365000000
0"
#2370000000
b11100001 ,
1"
#2375000000
0"
#2380000000
b11100010 ,
1"
#2385000000
0"
#2390000000
b11100011 ,
1"
#2395000000
0"
#2400000000
b11100100 ,
1"
#2405000000
0"
#2410000000
b11100101 ,
1"
#2415000000
0"
#2420000000
b11100110 ,
1"
#2425000000
0"
#2430000000
b11100111 ,
1"
#2435000000
0"
#2440000000
b11101000 ,
1"
#2445000000
0"
#2450000000
b11101001 ,
1"
#2455000000
0"
#2460000000
b11101010 ,
1"
#2465000000
0"
#2470000000
b11101011 ,
1"
#2475000000
0"
#2480000000
b11101100 ,
1"
#2485000000
0"
#2490000000
b11101101 ,
1"
#2495000000
0"
#2500000000
b11101110 ,
1"
#2505000000
0"
#2510000000
b11101111 ,
1"
#2515000000
0"
#2520000000
b11110000 ,
1"
#2525000000
0"
#2530000000
b11110001 ,
1"
#2535000000
0"
#2540000000
b11110010 ,
1"
#2545000000
0"
#2550000000
b11110011 ,
1"
#2555000000
0"
#2560000000
b11110100 ,
1"
#2565000000
0"
#2570000000
b11110101 ,
1"
#2575000000
0"
#2580000000
b11110110 ,
1"
#2585000000
0"
#2590000000
b11110111 ,
1"
#2595000000
0"
#2600000000
b11111000 ,
1"
#2605000000
0"
#2610000000
b11111001 ,
1"
#2615000000
0"
#2620000000
b11111010 ,
1"
#2625000000
0"
#2630000000
b11111011 ,
1"
#2635000000
0"
#2640000000
b11111100 ,
1"
#2645000000
0"
#2650000000
b11111101 ,
1"
#2655000000
0"
#2660000000
b11111110 ,
1"
#2665000000
0"
#2670000000
b11111111 ,
1"
#2675000000
0"
#2680000000
b100000000 ,
1"
#2685000000
0"
#2690000000
b100000001 ,
1"
#2695000000
0"
#2700000000
b100000010 ,
1"
#2705000000
0"
#2710000000
b100000011 ,
1"
#2715000000
0"
#2720000000
b100000100 ,
1"
#2725000000
0"
#2730000000
b100000101 ,
1"
#2735000000
0"
#2740000000
b100000110 ,
1"
#2745000000
0"
#2750000000
b100000111 ,
1"
#2755000000
0"
#2760000000
b100001000 ,
1"
#2765000000
0"
#2770000000
b100001001 ,
1"
#2775000000
0"
#2780000000
b100001010 ,
1"
#2785000000
0"
#2790000000
b100001011 ,
1"
#2795000000
0"
#2800000000
b100001100 ,
1"
#2805000000
0"
#2810000000
b100001101 ,
1"
#2815000000
0"
#2820000000
b100001110 ,
1"
#2825000000
0"
#2830000000
b100001111 ,
1"
#2835000000
0"
#2840000000
b100010000 ,
1"
#2845000000
0"
#2850000000
b100010001 ,
1"
#2855000000
0"
#2860000000
b100010010 ,
1"
#2865000000
0"
#2870000000
b100010011 ,
1"
#2875000000
0"
#2880000000
b100010100 ,
1"
#2885000000
0"
#2890000000
b100010101 ,
1"
#2895000000
0"
#2900000000
b100010110 ,
1"
#2905000000
0"
#2910000000
b100010111 ,
1"
#2915000000
0"
#2920000000
b100011000 ,
1"
#2925000000
0"
#2930000000
b100011001 ,
1"
#2935000000
0"
#2940000000
b100011010 ,
1"
#2945000000
0"
#2950000000
b100011011 ,
1"
#2955000000
0"
#2960000000
b100011100 ,
1"
#2965000000
0"
#2970000000
b100011101 ,
1"
#2975000000
0"
#2980000000
b100011110 ,
1"
#2985000000
0"
#2990000000
b100011111 ,
1"
#2995000000
0"
#3000000000
b100100000 ,
1"
#3005000000
0"
#3010000000
b100100001 ,
1"
#3015000000
0"
#3020000000
b100100010 ,
1"
#3025000000
0"
#3030000000
b100100011 ,
1"
#3035000000
0"
#3040000000
b100100100 ,
1"
#3045000000
0"
#3050000000
b100100101 ,
1"
#3055000000
0"
#3060000000
b100100110 ,
1"
#3065000000
0"
#3070000000
b100100111 ,
1"
#3075000000
0"
#3080000000
b100101000 ,
1"
#3085000000
0"
#3090000000
b100101001 ,
1"
#3095000000
0"
#3100000000
b100101010 ,
1"
#3105000000
0"
#3110000000
b100101011 ,
1"
#3115000000
0"
#3120000000
b100101100 ,
1"
#3125000000
0"
#3130000000
b100101101 ,
1"
#3135000000
0"
#3140000000
b100101110 ,
1"
#3145000000
0"
#3150000000
b100101111 ,
1"
#3155000000
0"
#3160000000
b100110000 ,
1"
#3165000000
0"
#3170000000
b100110001 ,
1"
#3175000000
0"
#3180000000
b100110010 ,
1"
#3185000000
0"
#3190000000
b100110011 ,
1"
#3195000000
0"
#3200000000
b100110100 ,
1"
#3205000000
0"
#3210000000
b100110101 ,
1"
#3215000000
0"
#3220000000
b100110110 ,
1"
#3225000000
0"
#3230000000
b100110111 ,
1"
#3235000000
0"
#3240000000
b100111000 ,
1"
#3245000000
0"
#3250000000
b100111001 ,
1"
#3255000000
0"
#3260000000
b100111010 ,
1"
#3265000000
0"
#3270000000
b100111011 ,
1"
#3275000000
0"
#3280000000
b100111100 ,
1"
#3285000000
0"
#3290000000
b100111101 ,
1"
#3295000000
0"
#3300000000
b100111110 ,
1"
#3305000000
0"
#3310000000
b100111111 ,
1"
#3315000000
0"
#3320000000
b101000000 ,
1"
#3325000000
0"
#3330000000
b101000001 ,
1"
#3335000000
0"
#3340000000
b101000010 ,
1"
#3345000000
0"
#3350000000
b101000011 ,
1"
#3355000000
0"
#3360000000
b101000100 ,
1"
#3365000000
0"
#3370000000
b101000101 ,
1"
#3375000000
0"
#3380000000
b101000110 ,
1"
#3385000000
0"
#3390000000
b101000111 ,
1"
#3395000000
0"
#3400000000
b101001000 ,
1"
#3405000000
0"
#3410000000
b101001001 ,
1"
#3415000000
0"
#3420000000
b101001010 ,
1"
#3425000000
0"
#3430000000
b101001011 ,
1"
#3435000000
0"
#3440000000
b101001100 ,
1"
#3445000000
0"
#3450000000
b101001101 ,
1"
#3455000000
0"
#3460000000
b101001110 ,
1"
#3465000000
0"
#3470000000
b101001111 ,
1"
#3475000000
0"
#3480000000
b101010000 ,
1"
#3485000000
0"
#3490000000
b101010001 ,
1"
#3495000000
0"
#3500000000
b101010010 ,
1"
#3505000000
0"
#3510000000
b101010011 ,
1"
#3515000000
0"
#3520000000
b101010100 ,
1"
#3525000000
0"
#3530000000
b101010101 ,
1"
#3535000000
0"
#3540000000
b101010110 ,
1"
#3545000000
0"
#3550000000
b101010111 ,
1"
#3555000000
0"
#3560000000
b101011000 ,
1"
#3565000000
0"
#3570000000
b101011001 ,
1"
#3575000000
0"
#3580000000
b101011010 ,
1"
#3585000000
0"
#3590000000
b101011011 ,
1"
#3595000000
0"
#3600000000
b101011100 ,
1"
#3605000000
0"
#3610000000
b101011101 ,
1"
#3615000000
0"
#3620000000
b101011110 ,
1"
#3625000000
0"
#3630000000
b101011111 ,
1"
#3635000000
0"
#3640000000
b101100000 ,
1"
#3645000000
0"
#3650000000
b101100001 ,
1"
#3655000000
0"
#3660000000
b101100010 ,
1"
#3665000000
0"
#3670000000
b101100011 ,
1"
#3675000000
0"
#3680000000
b101100100 ,
1"
#3685000000
0"
#3690000000
b101100101 ,
1"
#3695000000
0"
#3700000000
b101100110 ,
1"
#3705000000
0"
#3710000000
b101100111 ,
1"
#3715000000
0"
#3720000000
b101101000 ,
1"
#3725000000
0"
#3730000000
b101101001 ,
1"
#3735000000
0"
#3740000000
b101101010 ,
1"
#3745000000
0"
#3750000000
b101101011 ,
1"
#3755000000
0"
#3760000000
b101101100 ,
1"
#3765000000
0"
#3770000000
b101101101 ,
1"
#3775000000
0"
#3780000000
b101101110 ,
1"
#3785000000
0"
#3790000000
b101101111 ,
1"
#3795000000
0"
#3800000000
b101110000 ,
1"
#3805000000
0"
#3810000000
b101110001 ,
1"
#3815000000
0"
#3820000000
b101110010 ,
1"
#3825000000
0"
#3830000000
b101110011 ,
1"
#3835000000
0"
#3840000000
b101110100 ,
1"
#3845000000
0"
#3850000000
b101110101 ,
1"
#3855000000
0"
#3860000000
b101110110 ,
1"
#3865000000
0"
#3870000000
b101110111 ,
1"
#3875000000
0"
#3880000000
b101111000 ,
1"
#3885000000
0"
#3890000000
b101111001 ,
1"
#3895000000
0"
#3900000000
b101111010 ,
1"
#3905000000
0"
#3910000000
b101111011 ,
1"
#3915000000
0"
#3920000000
b101111100 ,
1"
#3925000000
0"
#3930000000
b101111101 ,
1"
#3935000000
0"
#3940000000
b101111110 ,
1"
#3945000000
0"
#3950000000
b101111111 ,
1"
#3955000000
0"
#3960000000
b110000000 ,
1"
#3965000000
0"
#3970000000
b110000001 ,
1"
#3975000000
0"
#3980000000
b110000010 ,
1"
#3985000000
0"
#3990000000
b110000011 ,
1"
#3995000000
0"
#4000000000
b110000100 ,
1"
#4005000000
0"
#4010000000
b110000101 ,
1"
#4015000000
0"
#4020000000
b110000110 ,
1"
#4025000000
0"
#4030000000
b110000111 ,
1"
#4035000000
0"
#4040000000
b110001000 ,
1"
#4045000000
0"
#4050000000
b110001001 ,
1"
#4055000000
0"
#4060000000
b110001010 ,
1"
#4065000000
0"
#4070000000
b110001011 ,
1"
#4075000000
0"
#4080000000
b110001100 ,
1"
#4085000000
0"
#4090000000
b110001101 ,
1"
#4095000000
0"
#4100000000
b110001110 ,
1"
#4105000000
0"
#4110000000
b110001111 ,
1"
#4115000000
0"
#4120000000
b110010000 ,
1"
#4125000000
0"
#4130000000
b110010001 ,
1"
#4135000000
0"
#4140000000
b110010010 ,
1"
#4145000000
0"
#4150000000
b110010011 ,
1"
#4155000000
0"
#4160000000
b110010100 ,
1"
#4165000000
0"
#4170000000
b110010101 ,
1"
#4175000000
0"
#4180000000
b110010110 ,
1"
#4185000000
0"
#4190000000
b110010111 ,
1"
#4195000000
0"
#4200000000
b110011000 ,
1"
#4205000000
0"
#4210000000
b110011001 ,
1"
#4215000000
0"
#4220000000
b110011010 ,
1"
#4225000000
0"
#4230000000
b110011011 ,
1"
#4235000000
0"
#4240000000
b110011100 ,
1"
#4245000000
0"
#4250000000
b110011101 ,
1"
#4255000000
0"
#4260000000
b110011110 ,
1"
#4265000000
0"
#4270000000
b110011111 ,
1"
#4275000000
0"
#4280000000
b110100000 ,
1"
#4285000000
0"
#4290000000
b110100001 ,
1"
#4295000000
0"
#4300000000
b110100010 ,
1"
#4305000000
0"
#4310000000
b110100011 ,
1"
#4315000000
0"
#4320000000
b110100100 ,
1"
#4325000000
0"
#4330000000
b110100101 ,
1"
#4335000000
0"
#4340000000
b110100110 ,
1"
#4345000000
0"
#4350000000
b110100111 ,
1"
#4355000000
0"
#4360000000
b110101000 ,
1"
#4365000000
0"
#4370000000
b110101001 ,
1"
#4375000000
0"
#4380000000
b110101010 ,
1"
#4385000000
0"
#4390000000
b110101011 ,
1"
#4395000000
0"
#4400000000
b110101100 ,
1"
#4405000000
0"
#4410000000
b110101101 ,
1"
#4415000000
0"
#4420000000
b110101110 ,
1"
#4425000000
0"
#4430000000
b110101111 ,
1"
#4435000000
0"
#4440000000
b110110000 ,
1"
#4445000000
0"
#4450000000
b110110001 ,
1"
#4455000000
0"
#4460000000
b110110010 ,
1"
#4465000000
0"
#4470000000
b110110011 ,
1"
#4475000000
0"
#4480000000
b110110100 ,
1"
#4485000000
0"
#4490000000
b110110101 ,
1"
#4495000000
0"
#4500000000
b110110110 ,
1"
#4505000000
0"
#4510000000
b110110111 ,
1"
#4515000000
0"
#4520000000
b110111000 ,
1"
#4525000000
0"
#4530000000
b110111001 ,
1"
#4535000000
0"
#4540000000
b110111010 ,
1"
#4545000000
0"
#4550000000
b110111011 ,
1"
#4555000000
0"
#4560000000
b110111100 ,
1"
#4565000000
0"
#4570000000
b110111101 ,
1"
#4575000000
0"
#4580000000
b110111110 ,
1"
#4585000000
0"
#4590000000
b110111111 ,
1"
#4595000000
0"
#4600000000
b111000000 ,
1"
#4605000000
0"
#4610000000
b111000001 ,
1"
#4615000000
0"
#4620000000
b111000010 ,
1"
#4625000000
0"
#4630000000
b111000011 ,
1"
#4635000000
0"
#4640000000
b111000100 ,
1"
#4645000000
0"
#4650000000
b111000101 ,
1"
#4655000000
0"
#4660000000
b111000110 ,
1"
#4665000000
0"
#4670000000
b111000111 ,
1"
#4675000000
0"
#4680000000
b111001000 ,
1"
#4685000000
0"
#4690000000
b111001001 ,
1"
#4695000000
0"
#4700000000
b111001010 ,
1"
#4705000000
0"
#4710000000
b111001011 ,
1"
#4715000000
0"
#4720000000
b111001100 ,
1"
#4725000000
0"
#4730000000
b111001101 ,
1"
#4735000000
0"
#4740000000
b111001110 ,
1"
#4745000000
0"
#4750000000
b111001111 ,
1"
#4755000000
0"
#4760000000
b111010000 ,
1"
#4765000000
0"
#4770000000
b111010001 ,
1"
#4775000000
0"
#4780000000
b111010010 ,
1"
#4785000000
0"
#4790000000
b111010011 ,
1"
#4795000000
0"
#4800000000
b111010100 ,
1"
#4805000000
0"
#4810000000
b111010101 ,
1"
#4815000000
0"
#4820000000
b111010110 ,
1"
#4825000000
0"
#4830000000
b111010111 ,
1"
#4835000000
0"
#4840000000
b111011000 ,
1"
#4845000000
0"
#4850000000
b111011001 ,
1"
#4855000000
0"
#4860000000
b111011010 ,
1"
#4865000000
0"
#4870000000
b111011011 ,
1"
#4875000000
0"
#4880000000
b111011100 ,
1"
#4885000000
0"
#4890000000
b111011101 ,
1"
#4895000000
0"
#4900000000
b111011110 ,
1"
#4905000000
0"
#4910000000
b111011111 ,
1"
#4915000000
0"
#4920000000
b111100000 ,
1"
#4925000000
0"
#4930000000
b111100001 ,
1"
#4935000000
0"
#4940000000
b111100010 ,
1"
#4945000000
0"
#4950000000
b111100011 ,
1"
#4955000000
0"
#4960000000
b111100100 ,
1"
#4965000000
0"
#4970000000
b111100101 ,
1"
#4975000000
0"
#4980000000
b111100110 ,
1"
#4985000000
0"
#4990000000
b111100111 ,
1"
#4995000000
0"
#5000000000
b111101000 ,
1"
#5005000000
0"
#5010000000
b111101001 ,
1"
#5015000000
0"
#5020000000
b111101010 ,
1"
#5025000000
0"
#5030000000
b111101011 ,
1"
#5035000000
0"
#5040000000
b111101100 ,
1"
#5045000000
0"
#5050000000
b111101101 ,
1"
#5055000000
0"
#5060000000
b111101110 ,
1"
#5065000000
0"
#5070000000
b111101111 ,
1"
#5075000000
0"
#5080000000
b111110000 ,
1"
#5085000000
0"
#5090000000
b111110001 ,
1"
#5095000000
0"
#5100000000
b111110010 ,
1"
#5105000000
0"
#5110000000
b111110011 ,
1"
#5115000000
0"
#5120000000
b111110100 ,
1"
#5125000000
0"
#5130000000
b111110101 ,
1"
#5135000000
0"
#5140000000
b111110110 ,
1"
#5145000000
0"
#5150000000
b111110111 ,
1"
#5155000000
0"
#5160000000
b111111000 ,
1"
#5165000000
0"
#5170000000
b111111001 ,
1"
#5175000000
0"
#5180000000
b111111010 ,
1"
#5185000000
0"
#5190000000
b111111011 ,
1"
#5195000000
0"
#5200000000
b111111100 ,
1"
#5205000000
0"
#5210000000
b111111101 ,
1"
#5215000000
0"
#5220000000
b111111110 ,
1"
#5225000000
0"
